<?xml version="1.0" encoding="UTF-8" standalone="no"?>
<!-- Created with Inkscape (http://www.inkscape.org/) -->

<svg
   width="137.9021"
   height="138.28058"
   viewBox="0 0 36.486595 36.586738"
   version="1.1"
   id="svg868"
   inkscape:version="1.1.1 (3bf5ae0d25, 2021-09-20, custom)"
   sodipodi:docname="codeberg.svg"
   xmlns:inkscape="http://www.inkscape.org/namespaces/inkscape"
   xmlns:sodipodi="http://sodipodi.sourceforge.net/DTD/sodipodi-0.dtd"
   xmlns:xlink="http://www.w3.org/1999/xlink"
   xmlns="http://www.w3.org/2000/svg"
   xmlns:svg="http://www.w3.org/2000/svg">
  <sodipodi:namedview
     id="namedview870"
     pagecolor="#ffffff"
     bordercolor="#666666"
     borderopacity="1.0"
     inkscape:pageshadow="2"
     inkscape:pageopacity="0.0"
     inkscape:pagecheckerboard="0"
     inkscape:document-units="px"
     showgrid="false"
     units="px"
     inkscape:zoom="4.2933552"
     inkscape:cx="78.609849"
     inkscape:cy="49.378631"
     inkscape:window-width="1920"
     inkscape:window-height="1043"
     inkscape:window-x="0"
     inkscape:window-y="21"
     inkscape:window-maximized="1"
     inkscape:current-layer="layer1"
     fit-margin-top="0"
     fit-margin-left="0"
     fit-margin-right="0"
     fit-margin-bottom="0" />
  <defs
     id="defs865">
    <linearGradient
       inkscape:collect="always"
       id="linearGradient11252">
      <stop
         style="stop-color:#2185d0;stop-opacity:1;"
         offset="0"
         id="stop11248" />
      <stop
         style="stop-color:#2185d0;stop-opacity:0"
         offset="1"
         id="stop11250" />
    </linearGradient>
    <linearGradient
       inkscape:collect="always"
       id="linearGradient7452">
      <stop
         style="stop-color:#2185d0;stop-opacity:1;"
         offset="0"
         id="stop7448" />
      <stop
         style="stop-color:#2185d0;stop-opacity:0;"
         offset="1"
         id="stop7450" />
    </linearGradient>
    <linearGradient
       inkscape:collect="always"
       id="linearGradient3333-1">
      <stop
         style="stop-color:#2185d0;stop-opacity:1;"
         offset="0"
         id="stop3329" />
      <stop
         style="stop-color:#ffffff;stop-opacity:0"
         offset="1"
         id="stop3331" />
    </linearGradient>
    <linearGradient
       inkscape:collect="always"
       xlink:href="#linearGradient3333-1"
       id="linearGradient3335"
       x1="10.755356"
       y1="16.172012"
       x2="28.289787"
       y2="33.726398"
       gradientUnits="userSpaceOnUse"
       gradientTransform="matrix(0.99560778,0,0,0.99561206,0.07466765,0.07459546)" />
    <linearGradient
       inkscape:collect="always"
       xlink:href="#linearGradient7452"
       id="linearGradient7842"
       x1="22.298082"
       y1="30.404259"
       x2="47.681221"
       y2="-8.6949005"
       gradientUnits="userSpaceOnUse"
       gradientTransform="matrix(0.99560778,0,0,0.99561206,0.07466765,0.07459546)" />
    <linearGradient
       inkscape:collect="always"
       xlink:href="#linearGradient11252"
       id="linearGradient11254"
       x1="16.992001"
       y1="8.4510002"
       x2="12.588213"
       y2="28.914675"
       gradientUnits="userSpaceOnUse"
       gradientTransform="matrix(0.99560778,0,0,0.99561206,0.07466765,0.07459546)" />
    <filter
       style="color-interpolation-filters:sRGB"
       inkscape:label="Drop Shadow"
       id="filter15328"
       x="-0.069193268"
       y="-0.069192969"
       width="1.1527353"
       height="1.1670833">
      <feFlood
         flood-opacity="0.4"
         flood-color="rgb(0,0,0)"
         result="flood"
         id="feFlood15318" />
      <feComposite
         in="flood"
         in2="SourceGraphic"
         operator="in"
         result="composite1"
         id="feComposite15320" />
      <feGaussianBlur
         in="composite1"
         stdDeviation="0.7"
         result="blur"
         id="feGaussianBlur15322" />
      <feOffset
         dx="0.4"
         dy="0.8"
         result="offset"
         id="feOffset15324" />
      <feComposite
         in="SourceGraphic"
         in2="offset"
         operator="over"
         result="composite2"
         id="feComposite15326" />
    </filter>
    <filter
       style="color-interpolation-filters:sRGB"
       inkscape:label="Drop Shadow"
       id="filter16804"
       x="-0.029219247"
       y="-0.040731655"
       width="1.0797442"
       height="1.1154064">
      <feFlood
         flood-opacity="0.501961"
         flood-color="rgb(0,0,0)"
         result="flood"
         id="feFlood16794" />
      <feComposite
         in="flood"
         in2="SourceGraphic"
         operator="in"
         result="composite1"
         id="feComposite16796" />
      <feGaussianBlur
         in="composite1"
         stdDeviation="0.4"
         result="blur"
         id="feGaussianBlur16798" />
      <feOffset
         dx="0.7"
         dy="0.8"
         result="offset"
         id="feOffset16800" />
      <feComposite
         in="SourceGraphic"
         in2="offset"
         operator="over"
         result="composite2"
         id="feComposite16802" />
    </filter>
  </defs>
  <g
     inkscape:label="Layer 1"
     inkscape:groupmode="layer"
     id="layer1"
     transform="translate(0.89329845,0.89336858)">
    <g
       id="g16868">
      <g
         id="g14296"
         style="filter:url(#filter16804)">
        <rect
           style="font-variation-settings:normal;vector-effect:none;fill:url(#linearGradient3335);fill-opacity:1;stroke:#2185d0;stroke-width:1.01154;stroke-linecap:butt;stroke-linejoin:round;stroke-miterlimit:4;stroke-dasharray:none;stroke-dashoffset:0;stroke-opacity:1;-inkscape-stroke:none;stop-color:#000000"
           id="rect951"
           width="32.855057"
           height="32.855198"
           x="0.57247156"
           y="0.57240146"
           ry="5.5977755"
           inkscape:label="bg" />
        <path
           id="rect951-9"
           style="vector-effect:none;fill:url(#linearGradient7842);fill-opacity:1;stroke:none;stroke-width:1.01154;stroke-linejoin:round;stop-color:#000000"
           inkscape:label="hilight"
           d="m 29.073844,10.611072 c 2.324243,0.621428 4.353684,2.40648 4.353684,2.40648 v 14.812271 c 0,3.101169 -2.496597,5.597776 -5.597752,5.597776 H 6.170223 c -3.1011542,0 -5.59775146,-2.496607 -5.59775146,-5.597776 V 17 c 0,0 5.87696976,-4.07414 9.25025736,-5.061546 C 15.995974,10.131463 23.226078,9.0475678 29.073844,10.611072 Z"
           sodipodi:nodetypes="scsssscas" />
      </g>
      <g
         id="g15352">
        <ellipse
           style="display:inline;opacity:0.85;fill:#ffffff;fill-opacity:1;stroke:#2185d0;stroke-width:0.497804;stroke-linejoin:round;stroke-opacity:1;filter:url(#filter15328);stop-color:#000000"
           id="path2859"
           inkscape:label="window"
           cy="16.909603"
           cx="17.069702"
           rx="13.938509"
           ry="13.938569" />
        <g
           id="g14292">
          <path
             style="fill:#2185d0;fill-opacity:1;stroke:none;stroke-width:0.263421px;stroke-linecap:butt;stroke-linejoin:miter;stroke-opacity:1"
             d="M 5.0447417,23.762198 16.992035,8.488513 20.872881,30.235329 C 16.564744,30.86511 14.352828,31.156091 11.233685,29.565103 8.1145408,27.974115 7.513256,27.4221 5.0447417,23.762198 Z"
             id="path9764"
             sodipodi:nodetypes="ccczc" />
          <path
             style="fill:url(#linearGradient11254);fill-opacity:1;stroke:none;stroke-width:0.263421px;stroke-linecap:butt;stroke-linejoin:miter;stroke-opacity:1"
             d="m 16.992035,8.488513 11.947293,15.273685 c -1.447063,2.395474 -1.645439,2.71599 -3.241876,3.941773 -1.596436,1.225783 -1.037485,1.250283 -4.824571,2.531358 L 16.992035,8.488513"
             id="path10843"
             sodipodi:nodetypes="cczcc" />
        </g>
      </g>
    </g>
  </g>
</svg>
