<?xml version="1.0" encoding="UTF-8" standalone="no"?>
<svg
   viewBox="0 0 128 128.72749"
   version="1.1"
   id="svg12"
   sodipodi:docname="liberapay.svg"
   inkscape:version="1.1.1 (3bf5ae0d25, 2021-09-20, custom)"
   width="128"
   height="128.72748"
   xmlns:inkscape="http://www.inkscape.org/namespaces/inkscape"
   xmlns:sodipodi="http://sodipodi.sourceforge.net/DTD/sodipodi-0.dtd"
   xmlns:xlink="http://www.w3.org/1999/xlink"
   xmlns="http://www.w3.org/2000/svg"
   xmlns:svg="http://www.w3.org/2000/svg">
  <defs
     id="defs16">
    <linearGradient
       inkscape:collect="always"
       id="linearGradient857">
      <stop
         style="stop-color:#f6c915;stop-opacity:1;"
         offset="0"
         id="stop853" />
      <stop
         style="stop-color:#f6c915;stop-opacity:0;"
         offset="1"
         id="stop855" />
    </linearGradient>
    <linearGradient
       inkscape:collect="always"
       id="linearGradient1034">
      <stop
         style="stop-color:#f6c915;stop-opacity:1;"
         offset="0"
         id="stop1030" />
      <stop
         style="stop-color:#ffffff;stop-opacity:1"
         offset="1"
         id="stop1032" />
    </linearGradient>
    <linearGradient
       inkscape:collect="always"
       xlink:href="#linearGradient1034"
       id="linearGradient1036"
       x1="28.606613"
       y1="17.005114"
       x2="74.562149"
       y2="68.90625"
       gradientUnits="userSpaceOnUse"
       gradientTransform="translate(5.6908808,5.6441003)" />
    <filter
       style="color-interpolation-filters:sRGB"
       inkscape:label="Drop Shadow"
       id="filter2564"
       x="-0.098079434"
       y="-0.076173549"
       width="1.2370253"
       height="1.1999556">
      <feFlood
         flood-opacity="0.501961"
         flood-color="rgb(0,0,0)"
         result="flood"
         id="feFlood2554" />
      <feComposite
         in="flood"
         in2="SourceGraphic"
         operator="in"
         result="composite1"
         id="feComposite2556" />
      <feGaussianBlur
         in="composite1"
         stdDeviation="2"
         result="blur"
         id="feGaussianBlur2558" />
      <feOffset
         dx="2"
         dy="3"
         result="offset"
         id="feOffset2560" />
      <feComposite
         in="SourceGraphic"
         in2="offset"
         operator="over"
         result="composite2"
         id="feComposite2562" />
    </filter>
    <filter
       style="color-interpolation-filters:sRGB"
       inkscape:label="Drop Shadow"
       id="filter2774"
       x="-0.071807727"
       y="-0.071360625"
       width="1.1686143"
       height="1.1799859">
      <feFlood
         flood-opacity="0.501961"
         flood-color="rgb(0,0,0)"
         result="flood"
         id="feFlood2764" />
      <feComposite
         in="flood"
         in2="SourceGraphic"
         operator="in"
         result="composite1"
         id="feComposite2766" />
      <feGaussianBlur
         in="composite1"
         stdDeviation="2"
         result="blur"
         id="feGaussianBlur2768" />
      <feOffset
         dx="2"
         dy="3"
         result="offset"
         id="feOffset2770" />
      <feComposite
         in="SourceGraphic"
         in2="offset"
         operator="over"
         result="composite2"
         id="feComposite2772" />
    </filter>
    <filter
       style="color-interpolation-filters:sRGB"
       inkscape:label="Drop Shadow"
       id="filter1093"
       x="-0.041809095"
       y="-0.041548775"
       width="1.1023673"
       height="1.1017298">
      <feFlood
         flood-opacity="0.501961"
         flood-color="rgb(0,0,0)"
         result="flood"
         id="feFlood1083" />
      <feComposite
         in="flood"
         in2="SourceGraphic"
         operator="in"
         result="composite1"
         id="feComposite1085" />
      <feGaussianBlur
         in="composite1"
         stdDeviation="1"
         result="blur"
         id="feGaussianBlur1087" />
      <feOffset
         dx="1.5"
         dy="1.5"
         result="offset"
         id="feOffset1089" />
      <feComposite
         in="SourceGraphic"
         in2="offset"
         operator="over"
         result="composite2"
         id="feComposite1091" />
    </filter>
    <linearGradient
       inkscape:collect="always"
       xlink:href="#linearGradient857"
       id="linearGradient859"
       x1="78.598915"
       y1="99.512268"
       x2="130.73276"
       y2="8.6668615"
       gradientUnits="userSpaceOnUse" />
  </defs>
  <sodipodi:namedview
     id="namedview14"
     pagecolor="#ffffff"
     bordercolor="#666666"
     borderopacity="1.0"
     inkscape:pageshadow="2"
     inkscape:pageopacity="0.0"
     inkscape:pagecheckerboard="0"
     showgrid="false"
     inkscape:zoom="5.475"
     inkscape:cx="58.721461"
     inkscape:cy="63.926941"
     inkscape:window-width="1920"
     inkscape:window-height="1043"
     inkscape:window-x="0"
     inkscape:window-y="21"
     inkscape:window-maximized="1"
     inkscape:current-layer="svg12"
     fit-margin-top="0"
     fit-margin-left="0"
     fit-margin-right="0"
     fit-margin-bottom="0" />
  <path
     d="m 85.748527,72.013 c 0,8.08054 -5.225008,14.317078 -13.735527,14.236 L 19.48,85.748527 C 11.168412,85.669344 5.7448817,79.264897 5.7448817,72.013 V 19.48 C 5.7448817,11.396548 11.647847,5.7448817 19.48,5.7448817 h 52.533 c 7.95317,0 13.735527,6.0701173 13.735527,13.7351183 v 52.533"
     fill="#f6c915"
     id="path2"
     style="fill:url(#linearGradient1036);fill-opacity:1;stroke:#f6c915;stroke-width:1.88976;stroke-miterlimit:4;stroke-dasharray:none;stroke-opacity:1;filter:url(#filter1093)"
     inkscape:label="button"
     sodipodi:nodetypes="csssssssc"
     transform="matrix(1.4513558,0,0,1.4513558,-3.4832566,-3.4832566)" />
  <path
     d="m 120.96836,101.03322 c -0.27441,11.70568 -8.94993,19.93514 -19.93514,19.93514 H 24.78915 c -10.461903,0 -19.9345401,-11.67631 -19.9345401,-19.93514 V 62.91148 C 49.616695,40.531563 89.830274,38.61815 100.78402,41.210697 c 11.33415,2.682581 11.36021,2.635898 20.18434,7.038313 l 6.9e-4,52.78421"
     fill="#f6c915"
     id="path2-5"
     style="display:inline;fill:url(#linearGradient859);fill-opacity:1;stroke:none;stroke-width:2.74271;stroke-miterlimit:4;stroke-dasharray:none;stroke-opacity:1"
     inkscape:label="button hilight"
     sodipodi:nodetypes="cssscscc"
     sodipodi:insensitive="true" />
  <g
     fill="#ffffff"
     id="g8"
     transform="matrix(1.2047995,0,0,1.2047995,-191.73731,-354.79245)"
     inkscape:label="lp"
     style="filter:url(#filter2564)">
    <path
       d="m 202.45,366.03 c -3.104,0 -5.541,-0.405 -7.311,-1.213 -1.77,-0.809 -3.039,-1.912 -3.803,-3.313 -0.766,-1.398 -1.137,-3 -1.115,-4.818 0.021,-1.814 0.272,-3.748 0.754,-5.803 l 8.327,-34.817 10.164,-1.573 -9.114,37.768 c -0.175,0.786 -0.273,1.508 -0.295,2.163 -0.023,0.655 0.098,1.235 0.36,1.737 0.262,0.504 0.71,0.908 1.344,1.213 0.633,0.307 1.519,0.504 2.656,0.591 l -1.967,8.06"
       id="path4" />
    <path
       d="m 239.16,344.33 c 0,3.19 -0.525,6.108 -1.574,8.753 -1.049,2.646 -2.503,4.929 -4.36,6.852 -1.858,1.925 -4.087,3.421 -6.688,4.491 -2.601,1.07 -5.432,1.607 -8.49,1.607 -1.487,0 -2.973,-0.132 -4.459,-0.395 l -2.951,11.869 h -9.704 l 10.884,-45.37 c 1.748,-0.524 3.748,-0.994 5.999,-1.41 2.252,-0.415 4.689,-0.622 7.312,-0.622 2.448,0 4.558,0.371 6.327,1.114 1.771,0.743 3.224,1.76 4.361,3.049 1.136,1.29 1.977,2.798 2.523,4.524 0.546,1.726 0.82,3.574 0.82,5.542 m -23.802,13.442 c 0.743,0.175 1.661,0.262 2.754,0.262 1.704,0 3.256,-0.316 4.655,-0.951 1.398,-0.633 2.59,-1.518 3.574,-2.655 0.982,-1.136 1.747,-2.501 2.294,-4.098 0.546,-1.595 0.819,-3.354 0.819,-5.278 0,-1.879 -0.416,-3.475 -1.245,-4.787 -0.831,-1.311 -2.273,-1.967 -4.327,-1.967 -1.4,0 -2.711,0.131 -3.935,0.394 l -4.589,19.08"
       id="path6" />
  </g>
</svg>
